Name,WeightClassKg,Division,Sex,Best3SquatKg,Best3BenchKg,Best3DeadliftKg,TotalKg,Event,Equipment,Place
R. Boykin,52,Open,M,86.18,72.57,151.95,310.71,SBD,Single-ply,1
Q. Burgess,52,Open,F,102.06,47.63,92.99,242.67,SBD,Single-ply,1
Chuck Dunbar,56,Open,M,233.6,145.15,183.7,562.45,SBD,Single-ply,1
M. Collins,56,Open,M,151.95,77.11,147.42,376.48,SBD,Single-ply,2
T. Rupert,56,Open,M,124.74,63.5,61.23,249.48,SBD,Single-ply,3
H. Coney,60,Open,M,192.78,106.59,235.87,535.24,SBD,Single-ply,1
W. Morris,60,Open,M,142.88,92.99,197.31,433.18,SBD,Single-ply,2
Daniel Austin,67.5,Open,M,249.48,151.95,260.82,662.24,SBD,Single-ply,1
V. Williams,67.5,Open,M,238.14,140.61,244.94,623.69,SBD,Single-ply,2
D. Head,67.5,Open,M,210.92,136.08,179.17,526.17,SBD,Single-ply,3
J. Cooper,75,Open,M,229.06,117.93,242.67,589.67,SBD,Single-ply,1
C. Thompson,75,Open,M,195.04,127.01,244.94,566.99,SBD,Single-ply,2
D. Cooney,75,Open,M,197.31,122.47,240.4,560.19,SBD,Single-ply,3
D. Morris,75,Open,M,151.95,129.27,199.58,480.81,SBD,Single-ply,4
B. Nix,75,Open,M,154.22,83.91,167.83,405.97,SBD,Single-ply,5
A. Caldwell,82.5,Open,M,219.99,161.03,251.74,632.76,SBD,Single-ply,1
P. Stevens,82.5,Open,M,235.87,147.42,235.87,619.15,SBD,Single-ply,2
B. Hopkins,82.5,Open,M,215.46,154.22,222.26,591.94,SBD,Single-ply,3
L. Keyes,90,Open,M,276.69,201.85,294.84,773.37,SBD,Single-ply,1
D. Bost,90,Open,M,310.71,183.7,272.16,766.57,SBD,Single-ply,2
J. Hardy,90,Open,M,238.14,195.04,249.48,682.66,SBD,Single-ply,3
Dennis Duncan,90,Open,M,106.59,238.14,183.7,528.44,SBD,Raw,1
M. Camp,90,Open,M,170.1,129.27,181.44,480.81,SBD,Single-ply,4
V. Harrelson #1,100,Open,M,281.23,174.63,299.37,755.23,SBD,Single-ply,1
D. Daniel,100,Open,M,267.62,181.44,272.16,721.21,SBD,Single-ply,2
Richard Vaillancourt,100,Open,M,281.23,172.37,265.35,718.94,SBD,Single-ply,3
J. Haley,100,Open,M,263.08,165.56,281.23,709.87,SBD,Single-ply,4
V. Harrelson #2,110,Open,M,301.64,183.7,294.84,780.18,SBD,Single-ply,1
L. Shepard,110,Open,M,272.16,172.37,308.44,752.96,SBD,Single-ply,2
R. Backers,110,Open,M,281.23,167.83,294.84,743.89,SBD,Single-ply,3
E. Surelle,110,Open,M,319.78,161.03,263.08,743.89,SBD,Single-ply,4
L. Mejias,110,Open,M,274.42,179.17,278.96,732.55,SBD,Single-ply,5
Z. Carnes,110,Open,M,249.48,181.44,272.16,703.07,SBD,Single-ply,6
D. Ricafrente,125,Open,M,335.66,204.12,294.84,834.61,SBD,Single-ply,1
K. Payne,125,Open,M,285.76,217.72,278.96,782.45,SBD,Single-ply,2
C. Nell,125,Open,M,281.23,229.06,258.55,768.84,SBD,Single-ply,3
T. Neville,125,Open,M,174.63,127.01,208.65,510.29,SBD,Single-ply,4
J. Smith #4,125+,Open,M,272.16,206.38,281.23,759.77,SBD,Single-ply,1
D. Coleman,125+,Open,M,249.48,158.76,272.16,680.39,SBD,Single-ply,2
P. Wazni,52,Open,F,74.84,36.29,120.2,231.33,SBD,Single-ply,2
C. Colley,60,Open,F,81.65,54.43,113.4,249.48,SBD,Single-ply,1
W. Stegall,75,Open,F,99.79,49.9,138.35,288.03,SBD,Single-ply,1
H. Quaries,52,Open,F,54.43,27.22,83.91,165.56,SBD,Single-ply,3
S. Zimmerman,,Masters 40+,M,217.72,122.47,226.8,566.99,SBD,Single-ply,1
J. McGrath,,Masters 40+,M,176.9,102.06,199.58,478.54,SBD,Single-ply,2
R. Boykin,52,Novice,M,86.18,72.57,151.95,310.71,SBD,Single-ply,1
P. Wazni,52,Novice,F,74.84,36.29,120.2,231.33,SBD,Single-ply,1
B. Morries,52,Novice,M,56.7,52.16,113.4,222.26,SBD,Single-ply,2
H. Quaries,52,Novice,F,54.43,27.22,83.91,165.56,SBD,Single-ply,2
T. Rupert,56,Novice,M,124.74,63.5,61.23,249.48,SBD,Single-ply,1
W. Morris,60,Novice,M,142.88,92.99,197.31,433.18,SBD,Single-ply,1
B. Barton,60,Novice,M,151.95,79.38,176.9,408.23,SBD,Single-ply,2
R. Casalino,60,Novice,M,127.01,90.72,142.88,360.61,SBD,Single-ply,3
C. Colley,60,Novice,F,81.65,54.43,113.4,249.48,SBD,Single-ply,1
T. Dopson #1,67.5,Novice,M,185.97,136.08,235.87,557.92,SBD,Single-ply,1
D. Sweatt,67.5,Novice,M,181.44,113.4,215.46,510.29,SBD,Single-ply,2
R. Mills,67.5,Novice,M,165.56,108.86,188.24,462.66,SBD,Single-ply,3
J. Camp,67.5,Novice,M,140.61,97.52,170.1,408.23,SBD,Single-ply,4
J. Crawford,67.5,Novice,M,131.54,74.84,145.15,351.53,SBD,Single-ply,5
M. Walker,75,Novice,M,226.8,131.54,229.06,587.4,SBD,Single-ply,1
R. Gravitt,75,Novice,M,217.72,136.08,195.04,548.85,SBD,Single-ply,2
S. Sacco,75,Novice,M,188.24,136.08,181.44,505.76,SBD,Single-ply,3
B. Reese,75,Novice,M,181.44,120.2,204.12,505.76,SBD,Single-ply,4
T. Nowlin,75,Novice,M,181.44,136.08,188.24,505.76,SBD,Single-ply,5
J. Bagley,75,Novice,M,199.58,102.06,199.58,501.22,SBD,Single-ply,6
R. Boyte,75,Novice,M,167.83,124.74,204.12,496.68,SBD,Single-ply,7
D. Morris,75,Novice,M,151.95,129.27,199.58,480.81,SBD,Single-ply,8
S. Yeargin,75,Novice,M,161.03,111.13,204.12,476.27,SBD,Single-ply,9
T. Perry,75,Novice,M,142.88,102.06,192.78,437.72,SBD,Single-ply,10
J. Hachmeister,75,Novice,M,145.15,106.59,183.7,435.45,SBD,Single-ply,11
J. Floyd,75,Novice,M,149.69,92.99,188.24,430.91,SBD,Single-ply,12
S. Greene,75,Novice,M,131.54,106.59,172.37,410.5,SBD,Single-ply,13
T. Craig,75,Novice,M,142.88,88.45,172.37,403.7,SBD,Single-ply,14
P. Stevens,82.5,Novice,M,235.87,147.42,235.87,619.15,SBD,Single-ply,1
M. Jones,82.5,Novice,M,213.19,145.15,240.4,598.74,SBD,Single-ply,2
C. Leslie,82.5,Novice,M,199.58,154.22,238.14,591.94,SBD,Single-ply,3
B. Hopkins,82.5,Novice,M,215.46,154.22,222.26,591.94,SBD,Single-ply,4
T. Smith,82.5,Novice,M,204.12,140.61,235.87,580.6,SBD,Single-ply,5
W. Baur,82.5,Novice,M,215.46,129.27,226.8,571.53,SBD,Single-ply,6
P. Bergquist,82.5,Novice,M,213.19,131.54,217.72,562.45,SBD,Single-ply,7
T. Conroy,82.5,Novice,M,206.38,136.08,215.46,557.92,SBD,Single-ply,8
R. Anderton,82.5,Novice,M,167.83,122.47,174.63,464.93,SBD,Single-ply,9
H. Smith,82.5,Novice,M,151.95,95.25,195.04,442.25,SBD,Single-ply,10
L. Phillips,82.5,Novice,M,142.88,111.13,181.44,435.45,SBD,Single-ply,11
M. Booker,90,Novice,M,249.48,154.22,254.01,657.71,SBD,Single-ply,1
R. Quarles,90,Novice,M,226.8,131.54,244.94,603.28,SBD,Single-ply,2
J. Greene,90,Novice,M,226.8,136.08,240.4,603.28,SBD,Single-ply,3
D. Wood,90,Novice,M,192.78,163.29,222.26,578.33,SBD,Single-ply,4
L. Collins,90,Novice,M,219.99,124.74,226.8,571.53,SBD,Single-ply,5
E. Redding,90,Novice,M,208.65,147.42,213.19,569.26,SBD,Single-ply,6
D. Kemmerlin,90,Novice,M,201.85,136.08,226.8,564.72,SBD,Single-ply,7
M.Detrino,90,Novice,M,215.46,111.13,231.33,557.92,SBD,Single-ply,8
C. Cahpin,90,Novice,M,181.44,113.4,204.12,498.95,SBD,Single-ply,9
M. Camp,90,Novice,M,170.1,129.27,181.44,480.81,SBD,Single-ply,10
G. Labounty,90,Novice,M,165.56,102.06,183.7,451.32,SBD,Single-ply,11
P. Galloway,90,Novice,M,147.42,102.06,165.56,415.04,SBD,Single-ply,12
J. Haley,100,Novice,M,263.08,165.56,281.23,709.87,SBD,Single-ply,1
S. Scully,100,Novice,M,217.72,165.56,283.5,666.78,SBD,Single-ply,2
B. Farmer,100,Novice,M,188.24,142.88,238.14,569.26,SBD,Single-ply,3
S. Langord,100,Novice,M,154.22,124.74,185.97,464.93,SBD,Single-ply,4
L. Mejias,110,Novice,M,274.42,179.17,278.96,732.55,SBD,Single-ply,1
K. Hunter,110,Novice,M,247.21,165.56,249.48,662.24,SBD,Single-ply,2
B. Shiver,110,Novice,M,226.8,163.29,251.74,641.83,SBD,Single-ply,3
M. Dodson,110,Novice,M,185.97,165.56,254.01,605.55,SBD,Single-ply,4
J. Kaiser,110,Novice,M,217.72,149.69,219.99,587.4,SBD,Single-ply,5
D. Clark,110,Novice,M,213.19,133.81,215.46,562.45,SBD,Single-ply,6
E. Robinson,110,Novice,M,197.31,172.37,181.44,551.11,SBD,Single-ply,7
M. O'Bryan,125,Novice,M,272.16,147.42,204.12,623.69,SBD,Single-ply,1
S. Stathopoulis,125,Novice,M,204.12,140.61,226.8,571.53,SBD,Single-ply,2
R. Cordie,125,Novice,M,170.1,136.08,206.38,512.56,SBD,Single-ply,3
E. Shook,125,Novice,M,161.03,113.4,238.14,512.56,SBD,Single-ply,4
T. Noreim,125,Novice,M,174.63,127.01,208.65,510.29,SBD,Single-ply,5
D. Coleman,125+,Novice,M,249.48,158.76,272.16,680.39,SBD,Single-ply,1
