Place,Name,State,WeightClassKg,BodyweightKg,Age,Best3SquatKg,Best3BenchKg,Best3DeadliftKg,TotalKg,Sex,Division,Equipment,Event
1,Vanessa Villanueva,CA,56,55.8,20,75,35,110,220,F,Juniors 20-23,Raw,SBD
1,Kelly Gonzalez,CA,75,74.6,22,130,75,162.5,367.5,F,Juniors 20-23,Raw,SBD
1,April Disparte,CA,60,59.4,28,77.5,42.5,117.5,237.5,F,Open,Raw,SBD
1,Sunniva Vigdal,CA,67.5,63,22,80,45,100,225,F,Open,Raw,SBD
1,Mayra Amezcua,CA,90,89.6,26,122.5,77.5,150,350,F,Open,Raw,SBD
2,Lynne Castellanos,CA,90,86,57,75,50,145,270,F,Open,Raw,SBD
3,Adrienne Osuna,CA,90,84.2,31,75,50,125,250,F,Open,Raw,SBD
1,Dee Bridgett,CA,90+,105.2,26,122.5,60,165,347.5,F,Open,Raw,SBD
1,Chrissy Belo,CA,56,52.8,41,87.5,57.5,110,255,F,Masters 40-44,Raw,SBD
1,Lynne Castellanos,CA,90,86,57,75,50,145,270,F,Masters 55-59,Raw,SBD
1,Joshua Buchan,CA,67.5,64.6,17,125,77.5,170,372.5,M,Juniors 16-17,Raw,SBD
1,Emmanuel Trujillo,CA,75,73.6,17,102.5,90,177.5,370,M,Juniors 16-17,Raw,SBD
1,Kevin Meneray,CA,75,74,21,187.5,102.5,227.5,517.5,M,Juniors 20-23,Raw,SBD
2,Jose Ruiz,CA,75,74.6,21,160,105,207.5,472.5,M,Juniors 20-23,Raw,SBD
1,Cooper Silva,CA,82.5,79.4,19,177.5,140,180,497.5,M,Juniors 18-19,Raw,SBD
1,Damian Voland,CA,82.5,80.8,20,175,112.5,200,487.5,M,Juniors 20-23,Raw,SBD
DQ,Edgar Fernandez,CA,90,87.8,18,162.5,115,,,M,Juniors 18-19,Raw,SBD
1,Michael Vazquez,CA,100,92.6,17,155,80,157.5,392.5,M,Juniors 16-17,Raw,SBD
1,Jonathan Oropeza,CA,100,92,21,200,152.5,230,582.5,M,Juniors 20-23,Raw,SBD
2,Joel Mier,CA,100,98.2,20,175,142.5,210,527.5,M,Juniors 20-23,Raw,SBD
1,Oswaldo Barragan,CA,75,74.4,29,205,145,212.5,562.5,M,Open,Raw,SBD
2,Aaron Williamson,CA,75,74.8,29,177.5,115,227.5,520,M,Open,Raw,SBD
3,Jose Ruiz,CA,75,74.6,21,160,105,207.5,472.5,M,Open,Raw,SBD
1,Travis Elwell,CA,82.5,82,26,210,145,245,600,M,Open,Raw,SBD
2,Allen Plata,CA,82.5,80.8,29,165,97.5,230,492.5,M,Open,Raw,SBD
3,Ivan Mejia,CA,82.5,78.4,28,152.5,110,192.5,455,M,Open,Raw,SBD
4,Alvaro Diaz,GA,82.5,81.8,27,165,112.5,175,452.5,M,Open,Raw,SBD
5,Angel Navarro,CA,82.5,75.6,28,110,97.5,160,367.5,M,Open,Raw,SBD
1,Jose Garcia,CA,90,89,25,200,125,260,585,M,Open,Raw,SBD
2,Will James,CA,90,89.4,50,185,165,227.5,577.5,M,Open,Raw,SBD
3,Andres Paniagua,CA,90,89.8,39,202.5,140,235,577.5,M,Open,Raw,SBD
4,Justin Sarzaba,CA,90,87.4,29,170,117.5,220,507.5,M,Open,Raw,SBD
5,Joseph Quiroga,CA,90,87.4,35,145,125,215,485,M,Open,Raw,SBD
6,Matthew Gunner,CA,90,88,33,125,112.5,142.5,380,M,Open,Raw,SBD
DQ,Joshua Foster,CA,90,87.8,31,155,,175,,M,Open,Raw,SBD
1,Joshua Salem,CA,100,99.2,26,237.5,165,260,662.5,M,Open,Raw,SBD
2,Nick Squires,CA,100,99,30,220,150,260,630,M,Open,Raw,SBD
3,Adam Saldana,CA,100,100,24,207.5,150,197.5,555,M,Open,Raw,SBD
4,John Irwin,CA,100,96,35,160,132.5,205,497.5,M,Open,Raw,SBD
2,Richard Flores,CA,110,107.8,19,210,145,240,595,M,Open,Raw,SBD
3,Nate Gwynne,CA,110,109.4,47,130,100,162.5,392.5,M,Open,Raw,SBD
1,David Lemmel,CA,125,119.8,39,252.5,185,282.5,720,M,Open,Raw,SBD
2,Louis Shawver,CA,125,115.2,25,137.5,102.5,175,415,M,Open,Raw,SBD
1,Rich Hodgson,CA,90,89.4,45,150,130,192.5,472.5,M,Masters 45-49,Raw,SBD
DQ,Ken Larson,CA,90,89.6,49,,90,140,,M,Masters 45-49,Raw,SBD
1,Will James,CA,90,89.4,50,185,165,227.5,577.5,M,Masters 50-54,Raw,SBD
1,Nate Gwynne,CA,110,109.4,47,130,100,162.5,392.5,M,Masters 45-49,Raw,SBD
1,Jessica Benavides,CA,67.5,67.2,21,132.5,55,137.5,325,F,Juniors 20-23,Wraps,SBD
1,Jessica Benavides,CA,67.5,67.2,21,132.5,55,137.5,325,F,Open,Wraps,SBD
1,Daniel Roa,CA,67.5,64.4,15,140,80,165,385,M,Juniors 13-15,Wraps,SBD
1,Travis Raville,CA,90,88.2,32,165,115,240,520,M,Open,Wraps,SBD
1,Eddie Estrada,CA,100,97.8,34,227.5,155,250,632.5,M,Open,Wraps,SBD
DQ,Alan Lewis,CA,125,120.4,43,,90,200,,M,Open,Wraps,SBD
DQ,Alan Lewis,CA,125,120.4,43,,90,200,,M,Masters 40-44,Wraps,SBD
1,Derek Miw,CA,67.5,65.2,29,,127.5,,127.5,M,Open,Raw,B
1,Alison Shuman,CA,52,50.6,40,,,132.5,132.5,F,Open,Raw,D
1,John Irwin,CA,100,96,35,,,205,205,M,Open,Raw,D
1,David Douglas,CA,140+,149.6,29,,275,352.5,627.5,M,Open,Raw,BD
