Name,WeightClassKg,BodyweightKg,Bench1Kg,Bench2Kg,Bench3Kg,Bench4Kg,Best3BenchKg,TotalKg,Event,Equipment,Sex,Place,Division
Adrian Larsen,100,99.88,251.74,260.82,265.35,272.16,265.35,265.35,B,Raw,M,1,Open
Sammy Graham,100,97.61,190.51,199.58,-208.65,,199.58,199.58,B,Raw,M,2,Open
Daniel Locascio,100,92.99,192.78,-204.12,-204.12,,192.78,192.78,B,Raw,M,3,Open
Jerame Linnell,113.4,113.4,204.12,215.46,,,215.46,215.46,B,Raw,M,1,Open
Tim Schmidt,125,123.92,226.8,-238.14,-238.14,,226.8,226.8,B,Raw,M,1,Open
Pedro Mejias,125+,195.04,276.69,285.76,-292.57,,285.76,285.76,B,Raw,M,1,Open
Mike Kromer,125+,160.12,229.06,233.6,-238.14,,233.6,233.6,B,Raw,M,2,Open
