Division,WeightClassKg,Place,Name,Team,BodyweightKg,Best3SquatKg,Best3BenchKg,Best3DeadliftKg,TotalKg,Equipment,Event,Sex
Boys,52,1,Josh Lambert,Burleson Centennial,51.71,92.99,49.9,99.79,242.67,Single-ply,SBD,M
Boys,56,1,Alex Renteria,Burleson,54.48,92.99,54.43,99.79,247.21,Single-ply,SBD,M
Boys,60,1,Jacob Moss,Burleson,58.56,138.35,81.65,145.15,365.14,Single-ply,SBD,M
Boys,60,2,Dakota Tidwell,Burleson,59.87,117.93,77.11,133.81,328.85,Single-ply,SBD,M
Boys,60,3,Dylan Quintero,Burleson Centennial,57.06,99.79,58.97,131.54,290.3,Single-ply,SBD,M
Boys,60,4,Michael Scherrer,Burleson,57.15,111.13,54.43,104.33,269.89,Single-ply,SBD,M
Boys,60,5,Gabe Russsell,Burleson,56.29,95.25,52.16,117.93,265.35,Single-ply,SBD,M
Boys,67.5,1,Chandler Brown,Burleson,63.5,154.22,99.79,142.88,396.89,Single-ply,SBD,M
Boys,67.5,2,Jacob Hughes #3,Joshua,66.27,142.88,97.52,145.15,385.55,Single-ply,SBD,M
Boys,67.5,3,Thomas Nivens,Burleson,65.32,136.08,70.31,136.08,342.46,Single-ply,SBD,M
Boys,67.5,4,Jonathan Boske,Burleson Centennial,61.14,74.84,63.5,83.91,222.26,Single-ply,SBD,M
Boys,75,1,Jc Mueller,Burleson,74.39,170.1,97.52,188.24,455.86,Single-ply,SBD,M
Boys,75,2,Tyrone Pettiford,North Crowley,67.36,136.08,68.04,181.44,385.55,Single-ply,SBD,M
Boys,75,3,Daniel Jordan,Burleson Centennial,70.76,127.01,83.91,136.08,347,Single-ply,SBD,M
Boys,75,4,Paul Scott,Cleburne,68.27,122.47,77.11,120.2,319.78,Single-ply,SBD,M
Boys,75,5,Brennan Strebeck,Joshua,68.08,106.59,72.57,124.74,303.91,Single-ply,SBD,M
Boys,82.5,1,Hunter Cunningham,Burleson,80.29,188.24,106.59,190.51,485.34,Single-ply,SBD,M
Boys,82.5,2,Michael Mebane,Joshua,80.47,192.78,97.52,170.1,460.4,Single-ply,SBD,M
Boys,82.5,3,Wesley Free,Cleburne,79.38,158.76,97.52,142.88,399.16,Single-ply,SBD,M
Boys,82.5,4,Gabe Bustillos,Burleson,80.78,149.69,92.99,156.49,399.16,Single-ply,SBD,M
Boys,82.5,5,Brayden Smith,Joshua,76.2,138.35,97.52,154.22,390.09,Single-ply,SBD,M
Boys,82.5,6,Freddie Banks,North Crowley,82.1,115.67,70.31,129.27,315.25,Single-ply,SBD,M
Boys,82.5,7,Daniel Medina,North Crowley,80.01,90.72,56.7,97.52,244.94,Single-ply,SBD,M
Boys,90,1,Caden Wells,Burleson,83.01,165.56,92.99,190.51,449.06,Single-ply,SBD,M
Boys,90,2,Joshua Walton,Burleson Centennial,88.59,136.08,108.86,161.03,405.97,Single-ply,SBD,M
Boys,90,3,Jared Johnson,Joshua,89.27,154.22,83.91,154.22,392.36,Single-ply,SBD,M
Boys,90,4,Ty Quigley,Midlothian,88.9,151.95,90.72,136.08,378.75,Single-ply,SBD,M
Boys,90,5,Julio Lozano,North Crowley,88,90.72,61.23,142.88,294.84,Single-ply,SBD,M
Boys,90,DQ,Genaro Vital,Cleburne,88.54,165.56,106.59,,,Single-ply,SBD,M
Boys,100,1,Blake Metts,Burleson,93.89,174.63,104.33,185.97,464.93,Single-ply,SBD,M
Boys,100,2,Jacob Hardie,Burleson,97.98,156.49,102.06,149.69,408.23,Single-ply,SBD,M
Boys,110,1,Thomas Godi,Burleson Centennial,107.95,251.74,167.83,242.67,662.24,Single-ply,SBD,M
Boys,110,2,Bailey Mullins,Burleson,105.69,206.38,122.47,229.06,557.92,Single-ply,SBD,M
Boys,110,3,Tyler Massingill,Burleson,105.01,215.46,102.06,190.51,508.02,Single-ply,SBD,M
Boys,110,4,Marquis Jones,North Crowley,107.68,170.1,97.52,183.7,451.32,Single-ply,SBD,M
Boys,110,5,Jacob Harmon,Burleson,109.77,163.29,102.06,142.88,408.23,Single-ply,SBD,M
Boys,110,6,Dj Frizzell,Midlothian,101.15,147.42,99.79,154.22,401.43,Single-ply,SBD,M
Boys,110,DQ,Keisten White,Burleson Centennial,109.77,170.1,,,,Single-ply,SBD,M
Boys,125,1,Dreon Harris,Burleson,114.76,206.38,99.79,204.12,510.29,Single-ply,SBD,M
Boys,125,2,Jayden Chaney,Joshua,110.27,129.27,111.13,176.9,417.3,Single-ply,SBD,M
Boys,125,DQ,Holt Honeycutt,Joshua,118.84,215.46,,,,Single-ply,SBD,M
Boys,125+,1,Thomas Ray,Midlothian,141.11,158.76,70.31,149.69,378.75,Single-ply,SBD,M
Boys,,DQ,Austin Sepulvada,Cleburne,,,,,,Single-ply,SBD,M
