Division,WeightClassKg,Name,Best3SquatKg,Squat4Kg,Best3BenchKg,Bench4Kg,Best3DeadliftKg,Deadlift4Kg,TotalKg,BodyweightKg,Event,Equipment,Sex,Place
Amateur Masters 45-49,75,Wendy Tracey,117.93,,68.04,,136.08,,322.05,,SBD,Wraps,F,1
Amateur Masters 50-54,75,Marlene Cosner,100.92,108.86,61.23,,122.47,,284.63,,SBD,Wraps,F,1
Amateur Masters 50-54,90,Gail Sizer,,,92.99,,,,92.99,,B,Raw,F,1
Amateur Masters 40-44,75,Celeste Jones,,,,,120.2,,120.2,,D,Raw,F,1
Amateur Open,75,Sean Hightman,174.63,183.7,138.35,,224.53,,537.51,,SBD,Wraps,M,1
Amateur Open,90,James Savage,222.26,,167.83,,254.01,,644.1,,SBD,Wraps,M,1
Amateur Open,90,Nicholaus Stone,219.99,,138.35,,215.46,,573.79,,SBD,Wraps,M,2
Amateur Open,100,Ryan Kalbaugh,272.16,,176.9,,265.35,,714.41,,SBD,Wraps,M,1
Amateur Open,100,Sydney Pierce,244.94,,145.15,,278.96,,669.05,,SBD,Wraps,M,2
Amateur Open,100,Jason Hagy,208.65,,136.08,,226.8,,571.53,,SBD,Wraps,M,3
Amateur Open,110,Ben Miller,254.01,,154.22,,249.48,,657.71,,SBD,Wraps,M,1
Amateur Open,110,Jonathan Cavanaugh,192.78,,133.81,,224.53,,551.11,,SBD,Wraps,M,2
Amateur Open,125,Andrew Norris,258.55,,190.51,,229.06,,678.12,,SBD,Wraps,M,1
Amateur Open,125,Maysam Rooshanfekr,215.46,,174.63,,277.83,,667.91,,SBD,Wraps,M,2
Amateur Open,125,Shawn Wilson,226.8,249.48,183.7,,226.8,,637.3,,SBD,Wraps,M,3
Amateur Open,140,Timothy Louisignau,254.01,,149.69,,256.28,,659.98,,SBD,Wraps,M,1
Amateur Submasters 30-34,100,Ryan Kirschner,235.87,,165.56,,269.89,,671.32,,SBD,Wraps,M,1
Amateur Submasters 30-34,100,Jeremy Elston,170.1,,156.49,,199.58,,526.17,,SBD,Wraps,M,2
Amateur Submasters 30-34,110,Ian Sanderson,183.7,,192.78,,265.35,,641.83,,SBD,Wraps,M,1
Amateur Submasters 30-34,140,Craig Peters,317.51,,217.72,,326.59,,861.83,,SBD,Wraps,M,1
Amateur Submasters 35-39,82.5,Scott Meier,204.12,,163.29,,226.8,,594.21,,SBD,Wraps,M,1
Amateur Submasters 35-39,90,Anthony Puklavec,217.72,219.99,113.4,,258.55,,589.67,,SBD,Wraps,M,1
Amateur Submasters 35-39,110,Luke Holt,215.46,,165.56,,219.99,,601.01,,SBD,Wraps,M,1
Amateur Submasters 35-39,110,Matt Blake,158.76,,154.22,,204.12,,517.1,,SBD,Wraps,M,2
Amateur Masters 40-44,90,Jeff Reimer,254.01,,122.47,,231.33,,607.81,,SBD,Wraps,M,1
Amateur Masters 40-44,90,Gary Carpenter,124.74,,102.06,,142.88,149.69,369.68,,SBD,Wraps,M,2
Amateur Masters 40-44,100,Sami Parviainen,165.56,,136.08,,197.31,,498.95,,SBD,Wraps,M,1
Amateur Masters 40-44,140,Charles Bothwell,272.16,,240.4,,265.35,,777.91,,SBD,Wraps,M,1
Amateur Masters 40-44,140,Dennis Herron,238.14,,170.1,,226.8,,635.03,,SBD,Wraps,M,2
Amateur Masters 45-49,125,Paul Bryant,231.33,,149.69,,226.8,,607.81,,SBD,Wraps,M,1
Amateur Masters 50-54,82.5,Kevin Scalli,213.19,,115.67,,204.12,,532.97,,SBD,Wraps,M,1
Amateur Masters 50-54,110,Wesley Forchion,127.01,,129.27,,192.78,,449.06,,SBD,Wraps,M,1
Amateur Masters 55-59,100,Richard Wanamaker,131.54,,108.86,,161.03,,401.43,,SBD,Wraps,M,1
Amateur Masters 60-64,90,Herbert Greenidge,205.25,,149.69,154.22,212.05,,566.99,,SBD,Wraps,M,1
Amateur Masters 65-69,90,Laurie Greenidge,190.51,,120.2,,206.38,,517.1,,SBD,Wraps,M,1
Amateur Masters 70+,110,Joseph Tracy,63.5,,81.65,,106.59,,251.74,,SBD,Wraps,M,1
Amateur Open,75,Sean Hightman,,,138.35,,,,138.35,,B,Raw,M,1
Amateur Open,75,Jordan Stepanchick,,,124.74,,,,124.74,,B,Raw,M,2
Amateur Open,90,Chris Colaner,,,172.37,,,,172.37,,B,Raw,M,1
Amateur Open,90,Craig Browne,,,168.96,173.5,,,168.74,,B,Raw,M,2
Amateur Open,100,Richard Drehobl,,,142.88,,,,142.88,,B,Raw,M,1
Amateur Open,110,Sean O'Connor,,,206.38,,,,206.38,,B,Raw,M,1
Amateur Open,110,Andrew Hecksher,,,156.49,,,,156.49,,B,Raw,M,2
Amateur Open,140,Charles Bothwell,,,240.4,,,,240.4,,B,Raw,M,1
Amateur Submasters 30-34,90,Jamar Hazelwood,,,156.49,,,,156.49,,B,Raw,M,1
Amateur Submasters 30-34,100,Ryan Kirschner,,,165.56,,,,165.56,,B,Raw,M,1
Amateur Submasters 30-34,100,Jeremy Elston,,,156.49,,,,156.49,,B,Raw,M,2
Amateur Submasters 35-39,75,Scott Moeller,,,140.61,,,,140.61,,B,Raw,M,1
Amateur Submasters 35-39,75,Robert Donovan,,,117.93,,,,117.93,,B,Raw,M,2
Amateur Submasters 35-39,75,James Donovan,,,111.13,,,,111.13,,B,Raw,M,3
Amateur Submasters 35-39,100,Andrezet Kocyla,,,235.87,,,,235.87,,B,Raw,M,1
Amateur Submasters 35-39,110,Scott Steven,,,197.31,,,,197.31,,B,Raw,M,1
Amateur Submasters 35-39,110,David Dalencour,,,174.63,,,,174.63,,B,Raw,M,2
Amateur Masters 40-44,82.5,Jeremy Shepherd,,,149.69,,,,149.69,,B,Raw,M,1
Amateur Masters 40-44,90,Scott Bisci,,,167.83,,,,167.83,,B,Raw,M,1
Amateur Masters 40-44,90,Jeff Reimer,,,122.47,,,,122.47,,B,Raw,M,2
Amateur Masters 40-44,140+,William Miner,,,188.24,,,,188.24,,B,Raw,M,1
Amateur Masters 45-49,90,Kevin Jones,,,156.49,,,,156.49,,B,Raw,M,1
Amateur Masters 45-49,110,Robert Maguire,,,167.83,,,,167.83,,B,Raw,M,1
Amateur Masters 45-49,110,Robert Marshall,,,142.88,,,,142.88,,B,Raw,M,2
Amateur Masters 45-49,125,Steven Troyd,,,149.69,,,,149.69,119.39,B,Raw,M,1
Amateur Masters 45-49,125,Paul Bryant,,,149.69,,,,149.69,124.76,B,Raw,M,2
Amateur Masters 50-54,100,Scott Sargent,,,161.03,,,,161.03,,B,Raw,M,1
Amateur Masters 50-54,100,William Schuster,,,154.22,,,,154.22,,B,Raw,M,2
Amateur Masters 50-54,110,Knight Smith,,,188.24,,,,188.24,,B,Raw,M,1
Amateur Masters 50-54,110,William Neath,,,147.42,,,,147.42,,B,Raw,M,2
Amateur Masters 50-54,110,Wesley Forchion,,,129.27,,,,129.27,,B,Raw,M,3
Amateur Masters 60-64,90,Herbert Greenidge,,,149.69,154.22,,,149.69,,B,Raw,M,1
Amateur Masters 65-69,90,Laurie Greenidge,,,120.2,,,,120.2,,B,Raw,M,1
Amateur Masters 70+,110,Joseph Tracy,,,81.65,,,,81.65,,B,Raw,M,1
Amateur Open,75,Sean Hightman,,,,,224.53,,224.53,,D,Raw,M,1
Amateur Open,100,Derek Degges,,,,,204.12,,204.12,,D,Raw,M,1
Amateur Open,110,Sean O'Connor,,,,,242.67,,242.67,,D,Raw,M,1
Amateur Submasters 30-34,90,Jamar Hazelwood,,,,,233.6,250.61,233.6,,D,Raw,M,1
Amateur Submasters 30-34,100,Ryan Kirschner,,,,,269.89,,269.89,,D,Raw,M,1
Amateur Submasters 35-39,75,James Donovan,,,,,183.7,189.37,183.7,,D,Raw,M,1
Amateur Submasters 35-39,75,Robert Donovan,,,,,181.44,188.24,181.44,,D,Raw,M,2
Amateur Submasters 35-39,82.5,Brad Lewis #2,,,,,192.78,,192.78,,D,Raw,M,1
Amateur Submasters 35-39,100,Adam Anderson,,,,,222.26,,222.26,,D,Raw,M,1
Amateur Masters 40-44,90,Jeff Reimer,,,,,231.33,,231.33,,D,Raw,M,1
Amateur Masters 45-49,82.5,Tim Alexandre,,,,,176.9,,176.9,,D,Raw,M,1
Amateur Masters 45-49,125,Charles Thomson,,,,,278.96,,278.96,,D,Raw,M,1
Amateur Masters 45-49,125,Paul Bryant,,,,,226.8,,226.8,,D,Raw,M,2
Amateur Masters 50-54,82.5,Kevin Scalli,,,,,204.12,,204.12,,D,Raw,M,1
Amateur Masters 60-64,90,Herbert Greenidge,,,,,212.05,,212.05,,D,Raw,M,1
Amateur Masters 65-69,90,Laurie Greenidge,,,,,206.38,,206.38,,D,Raw,M,1
Amateur Masters 70+,110,Joseph Tracy,,,,,106.59,,106.59,,D,Raw,M,1
