Place,Sex,Name,Event,Division,WeightClassKg,Equipment,State,BodyweightKg,Deadlift1Kg,Deadlift2Kg,Deadlift3Kg,Best3DeadliftKg,TotalKg,BirthYear
1,M,Gregory Johnson,D,R-O,105,Raw,TX,100.5,337.5,-355,-355,337.5,337.5,1990
2,M,LS McClain,D,R-O,105,Raw,TX,94.8,285,305,-317.5,305.0,305,1978
1,M,Jake Rammell,D,R-O,120,Raw,AK,118.3,325,340,357.5,357.5,357.5,
1,M,Mark Eppihimer,D,R-O,120+,Raw,AK,164.5,300,320,330,330.0,330,1981
2,M,Donny Kolstad,D,R-O,120+,Raw,AK,133.1,290,305,-317.5,305.0,305,1984
1,M,Will Hemmen,D,R-O,93,Raw,AK,91.2,245,-265,-265,245.0,245,1996
